…
<!-- end list -->

``` r
Long2 <- Long2 %>% group_by(pidp) %>%  mutate(prevvote = lag(vote6)) 

Long2 <- Long2 %>% replace(., is.na(.), 1)

Long2<-Long2 %>% group_by(pidp) %>% mutate(delta = abs(vote6 - prevvote))

longtable<- Long2 %>% group_by(pidp) %>% summarise(delta = sum(delta))

longtable
```

    ## # A tibble: 18,731 x 2
    ##        pidp delta
    ##       <int> <dbl>
    ##  1 68004087     3
    ##  2 68006127     3
    ##  3 68006807     4
    ##  4 68008847     7
    ##  5 68009527     3
    ##  6 68010887     7
    ##  7 68020407     6
    ##  8 68025847    11
    ##  9 68029927     6
    ## 10 68029931    19
    ## # ... with 18,721 more rows
…
    ## # A tibble: 2 x 2
    ##   sex    `Delta Mean`
    ##   <chr>         <dbl>
    ## 1 female        0.782
    ## 2 male          0.882

4.1 Calculate mean Delta by age (at wave 1)

``` r
longtable3<- Long2 %>% group_by(pidp, age = (age_dv[wave == 'a']) ) %>% summarise('delta' = sum(delta))

longtable3
```

    ## # A tibble: 18,731 x 3
    ## # Groups:   pidp [18,731]
    ##        pidp   age delta
    ##       <int> <int> <dbl>
    ##  1 68004087    59     3
    ##  2 68006127    39     3
    ##  3 68006807    72     4
    ##  4 68008847    51     7
    ##  5 68009527    31     3
    ##  6 68010887    45     7
    ##  7 68020407    72     6
    ##  8 68025847    73    11
    ##  9 68029927    36     6
    ## 10 68029931    40    19
    ## # ... with 18,721 more rows
…
